Debtor Number, Street Address, City & State, Zip Code, Primary Phone Number, Alternate Phone Number1, Alternate Phone Number2, Alternate Phone Number3, Alternate Phone Number4, Email Address
"10001","Nabin Sarani","Kolkata","700091","8296543269","","","","","hganm@hotmail.com"
"10001","Lenin Sarani","Kolkata","700001","8296543269","","","","","adsfas@hmail.com"
