22-Apr-2019 13:36:06.445 +05:30 [INF] Start Account Searching
22-Apr-2019 13:36:06.641 +05:30 [INF] Start Loading data from Excel File
22-Apr-2019 13:36:07.842 +05:30 [INF] Completed Loaded data from Excel File
22-Apr-2019 13:36:07.857 +05:30 [INF] End Account Searching
22-Apr-2019 13:36:07.857 +05:30 [INF] No Account Found with this PID.
22-Apr-2019 13:37:14.626 +05:30 [INF] Start Account Searching
22-Apr-2019 13:37:14.626 +05:30 [INF] Start Loading data from Excel File
22-Apr-2019 13:37:14.793 +05:30 [INF] Completed Loaded data from Excel File
22-Apr-2019 13:37:14.797 +05:30 [INF] End Account Searching
